Added Pin To Net: NetName=LOS Pin=J1-4
Added Pin To Net: NetName=LOS Pin=J2-8
Added Net: Name=LOS
Added Member To Class: ClassName=SFP_Adaptor_Board Member=Component C3 100nF
Added Member To Class: ClassName=SFP_Adaptor_Board Member=Component C5 47uF
